{
    "$schema": "https://raw.githubusercontent.com/martinring/tmlanguage/master/tmlanguage.json",
    "fileTypes": [
      "bif"
    ],
    "foldingStartMarker": "\\%{\\s*$",
    "foldingStopMarker": "^\\s*\\%}",
    "name": "bif",
    "patterns": [
        {
            "include": "#chead"
        },
        {
            "include": "#cbody"
        },
        {
            "begin": "##",
            "beginCaptures": {
              "0": {
                "name": "punctuation.definition.comment.bif"
              }
            },
            "end": "$",
            "name": "comment.line.number-sign.bif"
        },
        {
            "include": "source.zeek"
        }
    ],
    "repository": {
        "chead" : {
            "begin": "%%{",
            "contentName": "meta.embedded.block.cpp",
            "end": "%%}",
            "beginCaptures": {
                "0" : {"name" : "keyword.control.import.bif"}
            },
            "patterns": [
                {
                    "include": "source.cpp"
                }
            ],
            "endCaptures": {
                "0" : {"name" : "keyword.control.import.bif"}
            }
        },
        "cbody" : {
            "beginCaptures": {
                "0" : {"name" : "keyword.control.import.bif"}
            },
            "begin": "%{",
            "contentName": "meta.embedded.block.cpp",
            "end": "%}",
            "patterns": [
                {
                    "include": "source.cpp"
                }
            ],
            "endCaptures": {
                "0" : {"name" : "keyword.control.import.bif"}
            }
        }
        
    },
    "scopeName": "source.bif"
}